\relax 
\providecommand\hyper@newdestlabel[2]{}
\providecommand\HyperFirstAtBeginDocument{\AtBeginDocument}
\HyperFirstAtBeginDocument{\ifx\hyper@anchor\@undefined
\global\let\oldcontentsline\contentsline
\gdef\contentsline#1#2#3#4{\oldcontentsline{#1}{#2}{#3}}
\global\let\oldnewlabel\newlabel
\gdef\newlabel#1#2{\newlabelxx{#1}#2}
\gdef\newlabelxx#1#2#3#4#5#6{\oldnewlabel{#1}{{#2}{#3}}}
\AtEndDocument{\ifx\hyper@anchor\@undefined
\let\contentsline\oldcontentsline
\let\newlabel\oldnewlabel
\fi}
\fi}
\global\let\hyper@last\relax 
\gdef\HyperFirstAtBeginDocument#1{#1}
\providecommand\HyField@AuxAddToFields[1]{}
\providecommand\HyField@AuxAddToCoFields[2]{}
\@writefile{toc}{\contentsline {section}{George Gough}{1}{section*.1}}
\@writefile{toc}{\contentsline {subsection}{Support Engineer}{1}{subsection*.2}}
\@writefile{toc}{\contentsline {subsubsection}{Colleague and collaborator}{1}{subsubsection*.3}}
\@writefile{toc}{\contentsline {section}{John Burke}{1}{section*.4}}
\@writefile{toc}{\contentsline {subsection}{Assistant Professor}{1}{subsection*.5}}
\@writefile{toc}{\contentsline {subsubsection}{Former Professor and Mentor}{1}{subsubsection*.6}}
